{
    "KPlugin": {
        "Authors": [
            {
                "Email": "chani@kde.org",
                "Name": "Chani",
                "Name[ar]": "تشاني",
                "Name[az]": "Chani",
                "Name[ca]": "Chani",
                "Name[cs]": "Chani",
                "Name[de]": "Chani",
                "Name[en_GB]": "Chani",
                "Name[es]": "Chani",
                "Name[eu]": "Chani",
                "Name[fi]": "Chani",
                "Name[fr]": "Chani",
                "Name[hu]": "Chani",
                "Name[ia]": "Chani",
                "Name[id]": "Chani",
                "Name[it]": "Chani",
                "Name[ko]": "Chani",
                "Name[lt]": "Chani",
                "Name[nl]": "Chani",
                "Name[nn]": "Chani",
                "Name[pl]": "Chani",
                "Name[pt]": "Chani",
                "Name[pt_BR]": "Chani",
                "Name[ro]": "Chani",
                "Name[ru]": "Chani",
                "Name[sk]": "Chani",
                "Name[sl]": "Chani",
                "Name[sv]": "Chani",
                "Name[tr]": "Chani",
                "Name[uk]": "Chani",
                "Name[vi]": "Chani",
                "Name[x-test]": "xxChanixx",
                "Name[zh_CN]": "Chani"
            }
        ],
        "Description": "Information and launching of all applications in the app menu.",
        "Description[ar]": "معلومات وبدء تشغيل جميع التطبيقات في قائمة التطبيق.",
        "Description[az]": "Tətbiq menyusundan bütün tətbiqlər haqqında məlumat və onların başladılması.",
        "Description[ca]": "Informació i llançament de totes les aplicacions en el menú d'aplicacions.",
        "Description[cs]": "Informace a spouštění všech aplikací v nabídce aplikací.",
        "Description[de]": "Informationen und Starten aller Anwendungen im Programmmenü.",
        "Description[en_GB]": "Information and launching of all applications in the app menu.",
        "Description[es]": "Información y ejecución de todas las aplicaciones en el menú de aplicaciones.",
        "Description[eu]": "Aplikazio-menuko aplikazio guztiei buruzko informazioa eta haiek abiaraztea.",
        "Description[fi]": "Sovellustietoa ja kaikkien sovellusten käynnistys sovellusvalikosta.",
        "Description[fr]": "Informations et démarrage de toutes les applications du menu des applications.",
        "Description[hu]": "Az alkalmazásmenü alkalmazásainak indítása és jellemzőinek megjelenítése.",
        "Description[ia]": "Information e lanceamento de omne applicationes in le menu de app",
        "Description[id]": "Informasi dan meluncurkan semua aplikasi di menu aplikasi.",
        "Description[it]": "Informazioni e avvio di tutte le applicazioni nel loro menu.",
        "Description[ko]": "프로그램 메뉴의 정보를 보고 실행할 수 있도록 합니다.",
        "Description[lt]": "Visų programų informacija ir paleidimas programų meniu.",
        "Description[nl]": "Informatie en starten van alle programma's in het progmenu.",
        "Description[nn]": "Informasjon og køyring av alle programma i programmenyen.",
        "Description[pa]": "ਐਪਲੀਕੇਸ਼ਨ ਮੇਨ ਵਿੱਚ ਸਭ ਐਪਲੀਕੇਸ਼ਨਾਂ ਲਈ ਜਾਣਕਾਰੀ ਅਤੇ ਚਲਾਉਣਾ।",
        "Description[pl]": "Uruchamia dowolne programy z menu i wraz z informacjami o nich.",
        "Description[pt]": "Informação e lançamento de todas as aplicações no menu de aplicações.",
        "Description[pt_BR]": "Informação e inicialização de todos os aplicativos no menu de aplicativos.",
        "Description[ro]": "Informații și lansare de aplicații în meniul aplicațiilor.",
        "Description[ru]": "Информация и запуск всех приложений из меню приложений.",
        "Description[sk]": "Informácie a spúšťanie všetkých aplikácií v ponuke aplikácie.",
        "Description[sl]": "Informacije in zagon vseh programov v programskem meniju.",
        "Description[sv]": "Information om och start av alla program i programmenyn.",
        "Description[ta]": "செயலி பட்டியில் உள்ள செயலிகளை பற்றிய விவரங்களை வழங்கி அவற்றை இயக்கும்.",
        "Description[tr]": "Uygulama menüsündeki uygulamalar bilgisi ve çalıştırma.",
        "Description[uk]": "Відомості і запуск всіх програма з меню програм.",
        "Description[vi]": "Thông tin và việc khởi chạy của tất cả các ứng dụng trong trình đơn ứng dụng.",
        "Description[x-test]": "xxInformation and launching of all applications in the app menu.xx",
        "Description[zh_CN]": "显示信息或启动菜单中的所有应用程序。",
        "EnabledByDefault": true,
        "Icon": "user-desktop",
        "Id": "apps",
        "License": "LGPL",
        "Name": "Application Information",
        "Name[ar]": "معلومات التطبيقات",
        "Name[az]": "Tətbiq Məlumatları",
        "Name[bn]": "অ্যাপলিকেশন তথ্য",
        "Name[bs]": "Podaci o programima",
        "Name[ca@valencia]": "Informació de les aplicacions",
        "Name[ca]": "Informació de les aplicacions",
        "Name[cs]": "Informace o aplikaci",
        "Name[csb]": "Wëdowiédzô ò aplikacëji",
        "Name[da]": "Programinformation",
        "Name[de]": "Anwendungsinformationen",
        "Name[el]": "Πληροφορίες εφαρμογών",
        "Name[en_GB]": "Application Information",
        "Name[eo]": "Aplikaĵaj Informoj",
        "Name[es]": "Información de la aplicación",
        "Name[et]": "Rakenduse teave",
        "Name[eu]": "Aplikazioari buruzko informazioa",
        "Name[fi]": "Sovellustiedot",
        "Name[fr]": "Informations sur l'application",
        "Name[fy]": "Applikaasje ynformaasje",
        "Name[ga]": "Eolas faoi Fheidhmchláir",
        "Name[gl]": "Información da aplicación",
        "Name[gu]": "કાર્યક્રમ માહિતી",
        "Name[he]": "מידע אודות יישום",
        "Name[hi]": "अनुप्रयोग जानकारी",
        "Name[hr]": "Informacije o aplikacijama",
        "Name[hsb]": "Informacija wo aplikaciji",
        "Name[hu]": "Az alkalmazások jellemzői",
        "Name[ia]": "Information de application",
        "Name[id]": "Informasi Aplikasi",
        "Name[is]": "Upplýsingar um forrit",
        "Name[it]": "Informazioni sull'applicazione",
        "Name[ja]": "アプリケーションの情報",
        "Name[kk]": "Қолданбаның ақпараты",
        "Name[km]": "ព័ត៌មាន​កម្មវិធី",
        "Name[kn]": "ಅನ್ವಯ ಮಾಹಿತಿ",
        "Name[ko]": "프로그램 정보",
        "Name[lt]": "Programos informacija",
        "Name[lv]": "Programmas informācija",
        "Name[mk]": "Информации за апликации",
        "Name[ml]": "പ്രയോഗ വിവരം",
        "Name[mr]": "अनुप्रयोग माहिती",
        "Name[nb]": "Informasjon om program",
        "Name[nds]": "Programm-Informatschoon",
        "Name[nl]": "Programmainformatie",
        "Name[nn]": "Programinformasjon",
        "Name[pa]": "ਐਪਲੀਕੇਸ਼ਨ ਜਾਣਕਾਰੀ",
        "Name[pl]": "Informacje o programie",
        "Name[pt]": "Informação da Aplicação",
        "Name[pt_BR]": "Informações do aplicativo",
        "Name[ro]": "Informații despre aplicații",
        "Name[ru]": "Информация о приложениях",
        "Name[si]": "යෙදුම් තොරතුරු",
        "Name[sk]": "Informácie o aplikácii",
        "Name[sl]": "Informacije o programih",
        "Name[sr@ijekavian]": "подаци о програмима",
        "Name[sr@ijekavianlatin]": "podaci o programima",
        "Name[sr@latin]": "podaci o programima",
        "Name[sr]": "подаци о програмима",
        "Name[sv]": "Information om program",
        "Name[ta]": "செயலி விவரம்",
        "Name[tg]": "Иттилооти барнома",
        "Name[th]": "ข้อมูลของโปรแกรม",
        "Name[tr]": "Uygulama Bilgileri",
        "Name[ug]": "پروگرامما ئۇچۇرى",
        "Name[uk]": "Відомості щодо програм",
        "Name[vi]": "Thông tin ứng dụng",
        "Name[wa]": "Pondants et djondants do programe",
        "Name[x-test]": "xxApplication Informationxx",
        "Name[zh_CN]": "应用程序信息",
        "Name[zh_TW]": "應用程式資訊",
        "Website": "https://www.kde.org/plasma-desktop"
    }
}
